// Jest Snapshot v1, https://goo.gl/fbAQLP

exports[`Rendering should match snapshot 1`] = `
<header>
  <header
    className="MuiPaper-root MuiAppBar-root MuiAppBar-positionStatic MuiAppBar-colorPrimary MuiPaper-elevation4"
  >
    <div
      className="MuiToolbar-root MuiToolbar-regular MuiToolbar-gutters"
    >
      <h6
        className="MuiTypography-root MuiTypography-h6"
        edge="center"
      >
        Overkill-todo-react | 
        home
      </h6>
    </div>
  </header>
</header>
`;
